{
  "builder": "cmake",
  "dependencies_target": [
    "libwayland-bin:amd64",
    "libwayland-dev",
    "libwayland-client0",
    "libwayland-cursor0",
    "libwayland-egl1-mesa",
    "wayland-protocols:all",
    "libxkbcommon-dev",
    "libpulse-dev",
    "libfreetype6-dev",
    "libboost-filesystem-dev",
    "libboost-system-dev"
  ],
  "dependencies_host": [
    "libtool",
    "mercurial"
  ],
  "prebuild": "$ROOT/ext/download-dependencies.sh"
}
